==== Dataset information ====
256 dimensions, 300 vectors, 273 positive, 27 negative

Gamma = 0.03125, Lambda = 0.0533333333333, Acc = 0.8333, Training time = 0.0329999923706
Gamma = 0.03125, Lambda = 0.0133333333333, Acc = 0.8333, Training time = 0.0360000133514
Gamma = 0.03125, Lambda = 0.00333333333333, Acc = 0.9167, Training time = 0.0360000133514
Gamma = 0.03125, Lambda = 0.000833333333333, Acc = 0.8333, Training time = 0.0330002307892
Gamma = 0.03125, Lambda = 0.000208333333333, Acc = 0.8333, Training time = 0.0329999923706
Gamma = 0.125, Lambda = 0.0533333333333, Acc = 0.9167, Training time = 0.0310001373291
Gamma = 0.125, Lambda = 0.0133333333333, Acc = 0.8333, Training time = 0.0350000858307
Gamma = 0.125, Lambda = 0.00333333333333, Acc = 0.9167, Training time = 0.0350000858307
Gamma = 0.125, Lambda = 0.000833333333333, Acc = 1.0000, Training time = 0.0269999504089
Gamma = 0.125, Lambda = 0.000208333333333, Acc = 0.8333, Training time = 0.0280001163483
Gamma = 0.5, Lambda = 0.0533333333333, Acc = 0.8333, Training time = 0.0590000152588
Gamma = 0.5, Lambda = 0.0133333333333, Acc = 1.0000, Training time = 0.0339999198914
Gamma = 0.5, Lambda = 0.00333333333333, Acc = 0.8333, Training time = 0.0360000133514
Gamma = 0.5, Lambda = 0.000833333333333, Acc = 0.9167, Training time = 0.0269999504089
Gamma = 0.5, Lambda = 0.000208333333333, Acc = 0.8333, Training time = 0.0230000019073
Gamma = 2, Lambda = 0.0533333333333, Acc = 0.9167, Training time = 0.0239999294281
Gamma = 2, Lambda = 0.0133333333333, Acc = 0.9167, Training time = 0.0239999294281
Gamma = 2, Lambda = 0.00333333333333, Acc = 0.8333, Training time = 0.0299999713898
Gamma = 2, Lambda = 0.000833333333333, Acc = 0.9167, Training time = 0.0280001163483
Gamma = 2, Lambda = 0.000208333333333, Acc = 1.0000, Training time = 0.0260000228882
Gamma = 8, Lambda = 0.0533333333333, Acc = 0.7500, Training time = 0.0269999504089
Gamma = 8, Lambda = 0.0133333333333, Acc = 0.8333, Training time = 0.0250000953674
Gamma = 8, Lambda = 0.00333333333333, Acc = 0.8333, Training time = 0.0239999294281
Gamma = 8, Lambda = 0.000833333333333, Acc = 0.8333, Training time = 0.0260000228882
Gamma = 8, Lambda = 0.000208333333333, Acc = 0.8333, Training time = 0.0239999294281
Gamma = 32, Lambda = 0.0533333333333, Acc = 0.5000, Training time = 0.0379998683929
Gamma = 32, Lambda = 0.0133333333333, Acc = 0.5000, Training time = 0.0339999198914
Gamma = 32, Lambda = 0.00333333333333, Acc = 0.5000, Training time = 0.0390000343323
Gamma = 32, Lambda = 0.000833333333333, Acc = 0.5000, Training time = 0.0299999713898
Gamma = 32, Lambda = 0.000208333333333, Acc = 0.5000, Training time = 0.0280001163483

Gamma = 0.03125, Lambda = 0.0533333333333, Acc = 0.9909, Training time = 0.0270001888275
Gamma = 0.03125, Lambda = 0.0133333333333, Acc = 0.9909, Training time = 0.0239999294281
Gamma = 0.03125, Lambda = 0.00333333333333, Acc = 1.0000, Training time = 0.0350000858307
Gamma = 0.03125, Lambda = 0.000833333333333, Acc = 0.9909, Training time = 0.0249998569489
Gamma = 0.03125, Lambda = 0.000208333333333, Acc = 0.9909, Training time = 0.0459997653961
Gamma = 0.125, Lambda = 0.0533333333333, Acc = 0.9909, Training time = 0.0369999408722
Gamma = 0.125, Lambda = 0.0133333333333, Acc = 0.9909, Training time = 0.0230000019073
Gamma = 0.125, Lambda = 0.00333333333333, Acc = 0.9909, Training time = 0.0260000228882
Gamma = 0.125, Lambda = 0.000833333333333, Acc = 0.9909, Training time = 0.0239999294281
Gamma = 0.125, Lambda = 0.000208333333333, Acc = 0.9909, Training time = 0.0240001678467
Gamma = 0.5, Lambda = 0.0533333333333, Acc = 0.9909, Training time = 0.0270001888275
Gamma = 0.5, Lambda = 0.0133333333333, Acc = 0.9909, Training time = 0.0339999198914
Gamma = 0.5, Lambda = 0.00333333333333, Acc = 0.9909, Training time = 0.0350000858307
Gamma = 0.5, Lambda = 0.000833333333333, Acc = 0.9909, Training time = 0.0410001277924
Gamma = 0.5, Lambda = 0.000208333333333, Acc = 0.9909, Training time = 0.0400002002716
Gamma = 2, Lambda = 0.0533333333333, Acc = 0.9909, Training time = 0.029000043869
Gamma = 2, Lambda = 0.0133333333333, Acc = 0.9909, Training time = 0.0269999504089
Gamma = 2, Lambda = 0.00333333333333, Acc = 0.9818, Training time = 0.0329999923706
Gamma = 2, Lambda = 0.000833333333333, Acc = 0.9909, Training time = 0.0280001163483
Gamma = 2, Lambda = 0.000208333333333, Acc = 0.9909, Training time = 0.0240001678467
Gamma = 8, Lambda = 0.0533333333333, Acc = 1.0000, Training time = 0.0249998569489
Gamma = 8, Lambda = 0.0133333333333, Acc = 1.0000, Training time = 0.0260000228882
Gamma = 8, Lambda = 0.00333333333333, Acc = 0.7500, Training time = 0.0250000953674
Gamma = 8, Lambda = 0.000833333333333, Acc = 0.9167, Training time = 0.0279998779297
Gamma = 8, Lambda = 0.000208333333333, Acc = 1.0000, Training time = 0.0279998779297
Gamma = 32, Lambda = 0.0533333333333, Acc = 0.5000, Training time = 0.029000043869
Gamma = 32, Lambda = 0.0133333333333, Acc = 0.5000, Training time = 0.0270001888275
Gamma = 32, Lambda = 0.00333333333333, Acc = 0.5000, Training time = 0.0240001678467
Gamma = 32, Lambda = 0.000833333333333, Acc = 0.6667, Training time = 0.0239999294281
Gamma = 32, Lambda = 0.000208333333333, Acc = 0.5000, Training time = 0.0299999713898

Gamma = 0.03125, Lambda = 0.0533333333333, Acc = 1.0000, Training time = 0.0529999732971
Gamma = 0.03125, Lambda = 0.0133333333333, Acc = 1.0000, Training time = 0.0390000343323
Gamma = 0.03125, Lambda = 0.00333333333333, Acc = 1.0000, Training time = 0.0320000648499
Gamma = 0.03125, Lambda = 0.000833333333333, Acc = 1.0000, Training time = 0.0269999504089
Gamma = 0.03125, Lambda = 0.000208333333333, Acc = 1.0000, Training time = 0.0260000228882
Gamma = 0.125, Lambda = 0.0533333333333, Acc = 1.0000, Training time = 0.0239999294281
Gamma = 0.125, Lambda = 0.0133333333333, Acc = 1.0000, Training time = 0.0250000953674
Gamma = 0.125, Lambda = 0.00333333333333, Acc = 1.0000, Training time = 0.0360000133514
Gamma = 0.125, Lambda = 0.000833333333333, Acc = 1.0000, Training time = 0.0339999198914
Gamma = 0.125, Lambda = 0.000208333333333, Acc = 1.0000, Training time = 0.0309998989105
Gamma = 0.5, Lambda = 0.0533333333333, Acc = 1.0000, Training time = 0.0329999923706
Gamma = 0.5, Lambda = 0.0133333333333, Acc = 1.0000, Training time = 0.0239999294281
Gamma = 0.5, Lambda = 0.00333333333333, Acc = 1.0000, Training time = 0.0249998569489
Gamma = 0.5, Lambda = 0.000833333333333, Acc = 1.0000, Training time = 0.0250000953674
Gamma = 0.5, Lambda = 0.000208333333333, Acc = 1.0000, Training time = 0.0240001678467
Gamma = 2, Lambda = 0.0533333333333, Acc = 0.8909, Training time = 0.0249998569489
Gamma = 2, Lambda = 0.0133333333333, Acc = 1.0000, Training time = 0.0280001163483
Gamma = 2, Lambda = 0.00333333333333, Acc = 1.0000, Training time = 0.0329999923706
Gamma = 2, Lambda = 0.000833333333333, Acc = 1.0000, Training time = 0.0379998683929
Gamma = 2, Lambda = 0.000208333333333, Acc = 1.0000, Training time = 0.0379998683929
Gamma = 8, Lambda = 0.0533333333333, Acc = 0.9000, Training time = 0.0239999294281
Gamma = 8, Lambda = 0.0133333333333, Acc = 1.0000, Training time = 0.0300002098083
Gamma = 8, Lambda = 0.00333333333333, Acc = 1.0000, Training time = 0.0249998569489
Gamma = 8, Lambda = 0.000833333333333, Acc = 1.0000, Training time = 0.0239999294281
Gamma = 8, Lambda = 0.000208333333333, Acc = 1.0000, Training time = 0.0350000858307
Gamma = 32, Lambda = 0.0533333333333, Acc = 0.6000, Training time = 0.0460000038147
Gamma = 32, Lambda = 0.0133333333333, Acc = 0.5000, Training time = 0.029000043869
Gamma = 32, Lambda = 0.00333333333333, Acc = 0.5000, Training time = 0.0390000343323
Gamma = 32, Lambda = 0.000833333333333, Acc = 0.6000, Training time = 0.039999961853
Gamma = 32, Lambda = 0.000208333333333, Acc = 0.6000, Training time = 0.039999961853

Gamma = 0.03125, Lambda = 0.0533333333333, Acc = 1.0000, Training time = 0.0280001163483
Gamma = 0.03125, Lambda = 0.0133333333333, Acc = 1.0000, Training time = 0.0269999504089
Gamma = 0.03125, Lambda = 0.00333333333333, Acc = 1.0000, Training time = 0.0329999923706
Gamma = 0.03125, Lambda = 0.000833333333333, Acc = 1.0000, Training time = 0.0299999713898
Gamma = 0.03125, Lambda = 0.000208333333333, Acc = 1.0000, Training time = 0.0269999504089
Gamma = 0.125, Lambda = 0.0533333333333, Acc = 1.0000, Training time = 0.0250000953674
Gamma = 0.125, Lambda = 0.0133333333333, Acc = 1.0000, Training time = 0.0260000228882
Gamma = 0.125, Lambda = 0.00333333333333, Acc = 1.0000, Training time = 0.0250000953674
Gamma = 0.125, Lambda = 0.000833333333333, Acc = 1.0000, Training time = 0.0280001163483
Gamma = 0.125, Lambda = 0.000208333333333, Acc = 1.0000, Training time = 0.0249998569489
Gamma = 0.5, Lambda = 0.0533333333333, Acc = 1.0000, Training time = 0.0269999504089
Gamma = 0.5, Lambda = 0.0133333333333, Acc = 1.0000, Training time = 0.0269999504089
Gamma = 0.5, Lambda = 0.00333333333333, Acc = 1.0000, Training time = 0.0230000019073
Gamma = 0.5, Lambda = 0.000833333333333, Acc = 1.0000, Training time = 0.0230000019073
Gamma = 0.5, Lambda = 0.000208333333333, Acc = 1.0000, Training time = 0.0300002098083
Gamma = 2, Lambda = 0.0533333333333, Acc = 1.0000, Training time = 0.0239999294281
Gamma = 2, Lambda = 0.0133333333333, Acc = 1.0000, Training time = 0.0260000228882
Gamma = 2, Lambda = 0.00333333333333, Acc = 1.0000, Training time = 0.0250000953674
Gamma = 2, Lambda = 0.000833333333333, Acc = 1.0000, Training time = 0.0239999294281
Gamma = 2, Lambda = 0.000208333333333, Acc = 1.0000, Training time = 0.0250000953674
Gamma = 8, Lambda = 0.0533333333333, Acc = 1.0000, Training time = 0.0519998073578
Gamma = 8, Lambda = 0.0133333333333, Acc = 0.8000, Training time = 0.0380001068115
Gamma = 8, Lambda = 0.00333333333333, Acc = 1.0000, Training time = 0.0270001888275
Gamma = 8, Lambda = 0.000833333333333, Acc = 1.0000, Training time = 0.0250000953674
Gamma = 8, Lambda = 0.000208333333333, Acc = 1.0000, Training time = 0.0239999294281
Gamma = 32, Lambda = 0.0533333333333, Acc = 0.5000, Training time = 0.0260000228882
Gamma = 32, Lambda = 0.0133333333333, Acc = 0.5000, Training time = 0.0280001163483
Gamma = 32, Lambda = 0.00333333333333, Acc = 0.5000, Training time = 0.0270001888275
Gamma = 32, Lambda = 0.000833333333333, Acc = 0.5000, Training time = 0.0249998569489
Gamma = 32, Lambda = 0.000208333333333, Acc = 0.5000, Training time = 0.0260000228882

Gamma = 0.03125, Lambda = 0.0533333333333, Acc = 1.0000, Training time = 0.0260000228882
Gamma = 0.03125, Lambda = 0.0133333333333, Acc = 1.0000, Training time = 0.0280001163483
Gamma = 0.03125, Lambda = 0.00333333333333, Acc = 1.0000, Training time = 0.0250000953674
Gamma = 0.03125, Lambda = 0.000833333333333, Acc = 1.0000, Training time = 0.0260000228882
Gamma = 0.03125, Lambda = 0.000208333333333, Acc = 1.0000, Training time = 0.0269999504089
Gamma = 0.125, Lambda = 0.0533333333333, Acc = 1.0000, Training time = 0.0240001678467
Gamma = 0.125, Lambda = 0.0133333333333, Acc = 1.0000, Training time = 0.029000043869
Gamma = 0.125, Lambda = 0.00333333333333, Acc = 1.0000, Training time = 0.0249998569489
Gamma = 0.125, Lambda = 0.000833333333333, Acc = 1.0000, Training time = 0.0249998569489
Gamma = 0.125, Lambda = 0.000208333333333, Acc = 1.0000, Training time = 0.0260000228882
Gamma = 0.5, Lambda = 0.0533333333333, Acc = 1.0000, Training time = 0.0250000953674
Gamma = 0.5, Lambda = 0.0133333333333, Acc = 1.0000, Training time = 0.0230000019073
Gamma = 0.5, Lambda = 0.00333333333333, Acc = 1.0000, Training time = 0.0249998569489
Gamma = 0.5, Lambda = 0.000833333333333, Acc = 1.0000, Training time = 0.0239999294281
Gamma = 0.5, Lambda = 0.000208333333333, Acc = 1.0000, Training time = 0.0299999713898
Gamma = 2, Lambda = 0.0533333333333, Acc = 1.0000, Training time = 0.0329999923706
Gamma = 2, Lambda = 0.0133333333333, Acc = 1.0000, Training time = 0.0279998779297
Gamma = 2, Lambda = 0.00333333333333, Acc = 1.0000, Training time = 0.048999786377
Gamma = 2, Lambda = 0.000833333333333, Acc = 1.0000, Training time = 0.0460000038147
Gamma = 2, Lambda = 0.000208333333333, Acc = 1.0000, Training time = 0.0329999923706
Gamma = 8, Lambda = 0.0533333333333, Acc = 0.9000, Training time = 0.0329999923706
Gamma = 8, Lambda = 0.0133333333333, Acc = 1.0000, Training time = 0.0280001163483
Gamma = 8, Lambda = 0.00333333333333, Acc = 1.0000, Training time = 0.0299999713898
Gamma = 8, Lambda = 0.000833333333333, Acc = 0.8000, Training time = 0.021999835968
Gamma = 8, Lambda = 0.000208333333333, Acc = 1.0000, Training time = 0.0260000228882
Gamma = 32, Lambda = 0.0533333333333, Acc = 0.5000, Training time = 0.0250000953674
Gamma = 32, Lambda = 0.0133333333333, Acc = 0.5000, Training time = 0.0250000953674
Gamma = 32, Lambda = 0.00333333333333, Acc = 0.5000, Training time = 0.0250000953674
Gamma = 32, Lambda = 0.000833333333333, Acc = 0.5000, Training time = 0.0269999504089
Gamma = 32, Lambda = 0.000208333333333, Acc = 0.5000, Training time = 0.0250000953674


======Final Result======
G = 8, Lambda = 0.000208333333333
Training time=0.0260
Accuracy=1.0000
