1 1:0.29 2:1.175 3:0.39 4:0.025 5:1.465 6:0.1 7:0.265 8:1.565 9:1.2 10:0.365 11:0.25 12:0.141176470588 13:0.332179930796 14:0.0387543252595 
1 1:0.28 2:1.1 3:0.405 4:0.03 5:1.38 6:0.125 7:0.25 8:1.505 9:1.13 10:0.375 11:0.24 12:0.0858131487889 13:0.296193771626 14:0.0553633217993 
1 1:0.29 2:1.175 3:0.355 4:0.08 5:1.465 6:0.065 7:0.21 8:1.53 9:1.255 10:0.275 11:0.17 12:0.132871972318 13:0.370934256055 14:0.0415224913495 
1 1:0.29 2:1.175 3:0.355 4:0.08 5:1.465 6:0.065 7:0.21 8:1.53 9:1.255 10:0.275 11:0.17 12:0.132871972318 13:0.370934256055 14:0.0415224913495 
1 1:0.28 2:1.1 3:0.405 4:0.03 5:1.38 6:0.125 7:0.25 8:1.505 9:1.13 10:0.375 11:0.27 12:0.0913494809689 13:0.318339100346 14:0.0470588235294 
1 1:0.265 2:1.12 3:0.335 4:0.04 5:1.385 6:0.07 7:0.225 8:1.455 9:1.16 10:0.295 11:0.155 12:0.143944636678 13:0.321107266436 14:0.0415224913495 
1 1:0.295 2:1.165 3:0.345 4:0.07 5:1.46 6:0.05 7:0.225 8:1.51 9:1.235 10:0.275 11:0.14 12:0.157785467128 13:0.346020761246 14:0.0442906574394 
1 1:0.32 2:1.02 3:0.385 4:0.095 5:1.34 6:0.065 7:0.225 8:1.405 9:1.115 10:0.29 11:0.17 12:0.110726643599 13:0.359861591696 14:0.0442906574394 
1 1:0.31 2:1.145 3:0.355 4:0.05 5:1.455 6:0.045 7:0.26 8:1.5 9:1.195 10:0.305 11:0.16 12:0.141176470588 13:0.326643598616 14:0.0470588235294 
1 1:0.295 2:1.085 3:0.375 4:0.065 5:1.38 6:0.08 7:0.23 8:1.46 9:1.15 10:0.31 11:0.19 12:0.102422145329 13:0.351557093426 14:0.0415224913495 
1 1:0.29 2:1.175 3:0.39 4:0.025 5:1.465 6:0.1 7:0.265 8:1.565 9:1.2 10:0.365 11:0.25 12:0.141176470588 13:0.332179930796 14:0.0387543252595 
1 1:0.28 2:1.1 3:0.405 4:0.03 5:1.38 6:0.125 7:0.25 8:1.505 9:1.13 10:0.375 11:0.24 12:0.0858131487889 13:0.296193771626 14:0.0553633217993 
1 1:0.29 2:1.175 3:0.355 4:0.08 5:1.465 6:0.065 7:0.21 8:1.53 9:1.255 10:0.275 11:0.17 12:0.132871972318 13:0.370934256055 14:0.0415224913495 
1 1:0.29 2:1.175 3:0.355 4:0.08 5:1.465 6:0.065 7:0.21 8:1.53 9:1.255 10:0.275 11:0.17 12:0.132871972318 13:0.370934256055 14:0.0415224913495 
1 1:0.28 2:1.1 3:0.405 4:0.03 5:1.38 6:0.125 7:0.25 8:1.505 9:1.13 10:0.375 11:0.27 12:0.0913494809689 13:0.318339100346 14:0.0470588235294 
1 1:0.265 2:1.12 3:0.335 4:0.04 5:1.385 6:0.07 7:0.225 8:1.455 9:1.16 10:0.295 11:0.155 12:0.143944636678 13:0.321107266436 14:0.0415224913495 
1 1:0.295 2:1.165 3:0.345 4:0.07 5:1.46 6:0.05 7:0.225 8:1.51 9:1.235 10:0.275 11:0.14 12:0.157785467128 13:0.346020761246 14:0.0442906574394 
1 1:0.32 2:1.02 3:0.385 4:0.095 5:1.34 6:0.065 7:0.225 8:1.405 9:1.115 10:0.29 11:0.17 12:0.110726643599 13:0.359861591696 14:0.0442906574394 
1 1:0.31 2:1.145 3:0.355 4:0.05 5:1.455 6:0.045 7:0.26 8:1.5 9:1.195 10:0.305 11:0.16 12:0.141176470588 13:0.326643598616 14:0.0470588235294 
1 1:0.295 2:1.085 3:0.375 4:0.065 5:1.38 6:0.08 7:0.23 8:1.46 9:1.15 10:0.31 11:0.19 12:0.102422145329 13:0.351557093426 14:0.0415224913495 
1 1:0.29 2:1.175 3:0.39 4:0.025 5:1.465 6:0.1 7:0.265 8:1.565 9:1.2 10:0.365 11:0.25 12:0.141176470588 13:0.332179930796 14:0.0387543252595 
1 1:0.28 2:1.1 3:0.405 4:0.03 5:1.38 6:0.125 7:0.25 8:1.505 9:1.13 10:0.375 11:0.24 12:0.0858131487889 13:0.296193771626 14:0.0553633217993 
1 1:0.29 2:1.175 3:0.355 4:0.08 5:1.465 6:0.065 7:0.21 8:1.53 9:1.255 10:0.275 11:0.17 12:0.132871972318 13:0.370934256055 14:0.0415224913495 
1 1:0.29 2:1.175 3:0.355 4:0.08 5:1.465 6:0.065 7:0.21 8:1.53 9:1.255 10:0.275 11:0.17 12:0.132871972318 13:0.370934256055 14:0.0415224913495 
1 1:0.28 2:1.1 3:0.405 4:0.03 5:1.38 6:0.125 7:0.25 8:1.505 9:1.13 10:0.375 11:0.27 12:0.0913494809689 13:0.318339100346 14:0.0470588235294 
1 1:0.265 2:1.12 3:0.335 4:0.04 5:1.385 6:0.07 7:0.225 8:1.455 9:1.16 10:0.295 11:0.155 12:0.143944636678 13:0.321107266436 14:0.0415224913495 
1 1:0.295 2:1.165 3:0.345 4:0.07 5:1.46 6:0.05 7:0.225 8:1.51 9:1.235 10:0.275 11:0.14 12:0.157785467128 13:0.346020761246 14:0.0442906574394 
1 1:0.32 2:1.02 3:0.385 4:0.095 5:1.34 6:0.065 7:0.225 8:1.405 9:1.115 10:0.29 11:0.17 12:0.110726643599 13:0.359861591696 14:0.0442906574394 
1 1:0.31 2:1.145 3:0.355 4:0.05 5:1.455 6:0.045 7:0.26 8:1.5 9:1.195 10:0.305 11:0.16 12:0.141176470588 13:0.326643598616 14:0.0470588235294 
1 1:0.295 2:1.085 3:0.375 4:0.065 5:1.38 6:0.08 7:0.23 8:1.46 9:1.15 10:0.31 11:0.19 12:0.102422145329 13:0.351557093426 14:0.0415224913495 
1 1:0.29 2:1.175 3:0.39 4:0.025 5:1.465 6:0.1 7:0.265 8:1.565 9:1.2 10:0.365 11:0.25 12:0.141176470588 13:0.332179930796 14:0.0387543252595 
1 1:0.28 2:1.1 3:0.405 4:0.03 5:1.38 6:0.125 7:0.25 8:1.505 9:1.13 10:0.375 11:0.24 12:0.0858131487889 13:0.296193771626 14:0.0553633217993 
1 1:0.29 2:1.175 3:0.355 4:0.08 5:1.465 6:0.065 7:0.21 8:1.53 9:1.255 10:0.275 11:0.17 12:0.132871972318 13:0.370934256055 14:0.0415224913495 
1 1:0.29 2:1.175 3:0.355 4:0.08 5:1.465 6:0.065 7:0.21 8:1.53 9:1.255 10:0.275 11:0.17 12:0.132871972318 13:0.370934256055 14:0.0415224913495 
1 1:0.28 2:1.1 3:0.405 4:0.03 5:1.38 6:0.125 7:0.25 8:1.505 9:1.13 10:0.375 11:0.27 12:0.0913494809689 13:0.318339100346 14:0.0470588235294 
1 1:0.265 2:1.12 3:0.335 4:0.04 5:1.385 6:0.07 7:0.225 8:1.455 9:1.16 10:0.295 11:0.155 12:0.143944636678 13:0.321107266436 14:0.0415224913495 
1 1:0.295 2:1.165 3:0.345 4:0.07 5:1.46 6:0.05 7:0.225 8:1.51 9:1.235 10:0.275 11:0.14 12:0.157785467128 13:0.346020761246 14:0.0442906574394 
1 1:0.32 2:1.02 3:0.385 4:0.095 5:1.34 6:0.065 7:0.225 8:1.405 9:1.115 10:0.29 11:0.17 12:0.110726643599 13:0.359861591696 14:0.0442906574394 
1 1:0.31 2:1.145 3:0.355 4:0.05 5:1.455 6:0.045 7:0.26 8:1.5 9:1.195 10:0.305 11:0.16 12:0.141176470588 13:0.326643598616 14:0.0470588235294 
1 1:0.295 2:1.085 3:0.375 4:0.065 5:1.38 6:0.08 7:0.23 8:1.46 9:1.15 10:0.31 11:0.19 12:0.102422145329 13:0.351557093426 14:0.0415224913495 
1 1:0.29 2:1.175 3:0.39 4:0.025 5:1.465 6:0.1 7:0.265 8:1.565 9:1.2 10:0.365 11:0.25 12:0.141176470588 13:0.332179930796 14:0.0387543252595 
1 1:0.28 2:1.1 3:0.405 4:0.03 5:1.38 6:0.125 7:0.25 8:1.505 9:1.13 10:0.375 11:0.24 12:0.0858131487889 13:0.296193771626 14:0.0553633217993 
1 1:0.29 2:1.175 3:0.355 4:0.08 5:1.465 6:0.065 7:0.21 8:1.53 9:1.255 10:0.275 11:0.17 12:0.132871972318 13:0.370934256055 14:0.0415224913495 
1 1:0.29 2:1.175 3:0.355 4:0.08 5:1.465 6:0.065 7:0.21 8:1.53 9:1.255 10:0.275 11:0.17 12:0.132871972318 13:0.370934256055 14:0.0415224913495 
1 1:0.28 2:1.1 3:0.405 4:0.03 5:1.38 6:0.125 7:0.25 8:1.505 9:1.13 10:0.375 11:0.27 12:0.0913494809689 13:0.318339100346 14:0.0470588235294 
1 1:0.265 2:1.12 3:0.335 4:0.04 5:1.385 6:0.07 7:0.225 8:1.455 9:1.16 10:0.295 11:0.155 12:0.143944636678 13:0.321107266436 14:0.0415224913495 
1 1:0.295 2:1.165 3:0.345 4:0.07 5:1.46 6:0.05 7:0.225 8:1.51 9:1.235 10:0.275 11:0.14 12:0.157785467128 13:0.346020761246 14:0.0442906574394 
1 1:0.32 2:1.02 3:0.385 4:0.095 5:1.34 6:0.065 7:0.225 8:1.405 9:1.115 10:0.29 11:0.17 12:0.110726643599 13:0.359861591696 14:0.0442906574394 
1 1:0.31 2:1.145 3:0.355 4:0.05 5:1.455 6:0.045 7:0.26 8:1.5 9:1.195 10:0.305 11:0.16 12:0.141176470588 13:0.326643598616 14:0.0470588235294 
1 1:0.295 2:1.085 3:0.375 4:0.065 5:1.38 6:0.08 7:0.23 8:1.46 9:1.15 10:0.31 11:0.19 12:0.102422145329 13:0.351557093426 14:0.0415224913495 
1 1:0.29 2:1.175 3:0.39 4:0.025 5:1.465 6:0.1 7:0.265 8:1.565 9:1.2 10:0.365 11:0.25 12:0.141176470588 13:0.332179930796 14:0.0387543252595 
1 1:0.28 2:1.1 3:0.405 4:0.03 5:1.38 6:0.125 7:0.25 8:1.505 9:1.13 10:0.375 11:0.24 12:0.0858131487889 13:0.296193771626 14:0.0553633217993 
1 1:0.29 2:1.175 3:0.355 4:0.08 5:1.465 6:0.065 7:0.21 8:1.53 9:1.255 10:0.275 11:0.17 12:0.132871972318 13:0.370934256055 14:0.0415224913495 
1 1:0.29 2:1.175 3:0.355 4:0.08 5:1.465 6:0.065 7:0.21 8:1.53 9:1.255 10:0.275 11:0.17 12:0.132871972318 13:0.370934256055 14:0.0415224913495 
1 1:0.28 2:1.1 3:0.405 4:0.03 5:1.38 6:0.125 7:0.25 8:1.505 9:1.13 10:0.375 11:0.27 12:0.0913494809689 13:0.318339100346 14:0.0470588235294 
1 1:0.265 2:1.12 3:0.335 4:0.04 5:1.385 6:0.07 7:0.225 8:1.455 9:1.16 10:0.295 11:0.155 12:0.143944636678 13:0.321107266436 14:0.0415224913495 
1 1:0.295 2:1.165 3:0.345 4:0.07 5:1.46 6:0.05 7:0.225 8:1.51 9:1.235 10:0.275 11:0.14 12:0.157785467128 13:0.346020761246 14:0.0442906574394 
1 1:0.32 2:1.02 3:0.385 4:0.095 5:1.34 6:0.065 7:0.225 8:1.405 9:1.115 10:0.29 11:0.17 12:0.110726643599 13:0.359861591696 14:0.0442906574394 
1 1:0.31 2:1.145 3:0.355 4:0.05 5:1.455 6:0.045 7:0.26 8:1.5 9:1.195 10:0.305 11:0.16 12:0.141176470588 13:0.326643598616 14:0.0470588235294 
1 1:0.295 2:1.085 3:0.375 4:0.065 5:1.38 6:0.08 7:0.23 8:1.46 9:1.15 10:0.31 11:0.19 12:0.102422145329 13:0.351557093426 14:0.0415224913495 
1 1:0.29 2:1.175 3:0.39 4:0.025 5:1.465 6:0.1 7:0.265 8:1.565 9:1.2 10:0.365 11:0.25 12:0.141176470588 13:0.332179930796 14:0.0387543252595 
1 1:0.28 2:1.1 3:0.405 4:0.03 5:1.38 6:0.125 7:0.25 8:1.505 9:1.13 10:0.375 11:0.24 12:0.0858131487889 13:0.296193771626 14:0.0553633217993 
1 1:0.29 2:1.175 3:0.355 4:0.08 5:1.465 6:0.065 7:0.21 8:1.53 9:1.255 10:0.275 11:0.17 12:0.132871972318 13:0.370934256055 14:0.0415224913495 
1 1:0.29 2:1.175 3:0.355 4:0.08 5:1.465 6:0.065 7:0.21 8:1.53 9:1.255 10:0.275 11:0.17 12:0.132871972318 13:0.370934256055 14:0.0415224913495 
1 1:0.28 2:1.1 3:0.405 4:0.03 5:1.38 6:0.125 7:0.25 8:1.505 9:1.13 10:0.375 11:0.27 12:0.0913494809689 13:0.318339100346 14:0.0470588235294 
1 1:0.265 2:1.12 3:0.335 4:0.04 5:1.385 6:0.07 7:0.225 8:1.455 9:1.16 10:0.295 11:0.155 12:0.143944636678 13:0.321107266436 14:0.0415224913495 
1 1:0.295 2:1.165 3:0.345 4:0.07 5:1.46 6:0.05 7:0.225 8:1.51 9:1.235 10:0.275 11:0.14 12:0.157785467128 13:0.346020761246 14:0.0442906574394 
1 1:0.32 2:1.02 3:0.385 4:0.095 5:1.34 6:0.065 7:0.225 8:1.405 9:1.115 10:0.29 11:0.17 12:0.110726643599 13:0.359861591696 14:0.0442906574394 
1 1:0.31 2:1.145 3:0.355 4:0.05 5:1.455 6:0.045 7:0.26 8:1.5 9:1.195 10:0.305 11:0.16 12:0.141176470588 13:0.326643598616 14:0.0470588235294 
1 1:0.295 2:1.085 3:0.375 4:0.065 5:1.38 6:0.08 7:0.23 8:1.46 9:1.15 10:0.31 11:0.19 12:0.102422145329 13:0.351557093426 14:0.0415224913495 
1 1:0.29 2:1.175 3:0.39 4:0.025 5:1.465 6:0.1 7:0.265 8:1.565 9:1.2 10:0.365 11:0.25 12:0.141176470588 13:0.332179930796 14:0.0387543252595 
1 1:0.28 2:1.1 3:0.405 4:0.03 5:1.38 6:0.125 7:0.25 8:1.505 9:1.13 10:0.375 11:0.24 12:0.0858131487889 13:0.296193771626 14:0.0553633217993 
1 1:0.29 2:1.175 3:0.355 4:0.08 5:1.465 6:0.065 7:0.21 8:1.53 9:1.255 10:0.275 11:0.17 12:0.132871972318 13:0.370934256055 14:0.0415224913495 
1 1:0.29 2:1.175 3:0.355 4:0.08 5:1.465 6:0.065 7:0.21 8:1.53 9:1.255 10:0.275 11:0.17 12:0.132871972318 13:0.370934256055 14:0.0415224913495 
1 1:0.28 2:1.1 3:0.405 4:0.03 5:1.38 6:0.125 7:0.25 8:1.505 9:1.13 10:0.375 11:0.27 12:0.0913494809689 13:0.318339100346 14:0.0470588235294 
1 1:0.265 2:1.12 3:0.335 4:0.04 5:1.385 6:0.07 7:0.225 8:1.455 9:1.16 10:0.295 11:0.155 12:0.143944636678 13:0.321107266436 14:0.0415224913495 
1 1:0.295 2:1.165 3:0.345 4:0.07 5:1.46 6:0.05 7:0.225 8:1.51 9:1.235 10:0.275 11:0.14 12:0.157785467128 13:0.346020761246 14:0.0442906574394 
1 1:0.32 2:1.02 3:0.385 4:0.095 5:1.34 6:0.065 7:0.225 8:1.405 9:1.115 10:0.29 11:0.17 12:0.110726643599 13:0.359861591696 14:0.0442906574394 
1 1:0.31 2:1.145 3:0.355 4:0.05 5:1.455 6:0.045 7:0.26 8:1.5 9:1.195 10:0.305 11:0.16 12:0.141176470588 13:0.326643598616 14:0.0470588235294 
1 1:0.295 2:1.085 3:0.375 4:0.065 5:1.38 6:0.08 7:0.23 8:1.46 9:1.15 10:0.31 11:0.19 12:0.102422145329 13:0.351557093426 14:0.0415224913495 
1 1:0.29 2:1.175 3:0.39 4:0.025 5:1.465 6:0.1 7:0.265 8:1.565 9:1.2 10:0.365 11:0.25 12:0.141176470588 13:0.332179930796 14:0.0387543252595 
1 1:0.28 2:1.1 3:0.405 4:0.03 5:1.38 6:0.125 7:0.25 8:1.505 9:1.13 10:0.375 11:0.24 12:0.0858131487889 13:0.296193771626 14:0.0553633217993 
1 1:0.29 2:1.175 3:0.355 4:0.08 5:1.465 6:0.065 7:0.21 8:1.53 9:1.255 10:0.275 11:0.17 12:0.132871972318 13:0.370934256055 14:0.0415224913495 
1 1:0.29 2:1.175 3:0.355 4:0.08 5:1.465 6:0.065 7:0.21 8:1.53 9:1.255 10:0.275 11:0.17 12:0.132871972318 13:0.370934256055 14:0.0415224913495 
1 1:0.28 2:1.1 3:0.405 4:0.03 5:1.38 6:0.125 7:0.25 8:1.505 9:1.13 10:0.375 11:0.27 12:0.0913494809689 13:0.318339100346 14:0.0470588235294 
1 1:0.265 2:1.12 3:0.335 4:0.04 5:1.385 6:0.07 7:0.225 8:1.455 9:1.16 10:0.295 11:0.155 12:0.143944636678 13:0.321107266436 14:0.0415224913495 
1 1:0.295 2:1.165 3:0.345 4:0.07 5:1.46 6:0.05 7:0.225 8:1.51 9:1.235 10:0.275 11:0.14 12:0.157785467128 13:0.346020761246 14:0.0442906574394 
1 1:0.32 2:1.02 3:0.385 4:0.095 5:1.34 6:0.065 7:0.225 8:1.405 9:1.115 10:0.29 11:0.17 12:0.110726643599 13:0.359861591696 14:0.0442906574394 
1 1:0.31 2:1.145 3:0.355 4:0.05 5:1.455 6:0.045 7:0.26 8:1.5 9:1.195 10:0.305 11:0.16 12:0.141176470588 13:0.326643598616 14:0.0470588235294 
1 1:0.295 2:1.085 3:0.375 4:0.065 5:1.38 6:0.08 7:0.23 8:1.46 9:1.15 10:0.31 11:0.19 12:0.102422145329 13:0.351557093426 14:0.0415224913495 
1 1:0.29 2:1.175 3:0.39 4:0.025 5:1.465 6:0.1 7:0.265 8:1.565 9:1.2 10:0.365 11:0.25 12:0.141176470588 13:0.332179930796 14:0.0387543252595 
1 1:0.28 2:1.1 3:0.405 4:0.03 5:1.38 6:0.125 7:0.25 8:1.505 9:1.13 10:0.375 11:0.24 12:0.0858131487889 13:0.296193771626 14:0.0553633217993 
1 1:0.29 2:1.175 3:0.355 4:0.08 5:1.465 6:0.065 7:0.21 8:1.53 9:1.255 10:0.275 11:0.17 12:0.132871972318 13:0.370934256055 14:0.0415224913495 
1 1:0.29 2:1.175 3:0.355 4:0.08 5:1.465 6:0.065 7:0.21 8:1.53 9:1.255 10:0.275 11:0.17 12:0.132871972318 13:0.370934256055 14:0.0415224913495 
1 1:0.28 2:1.1 3:0.405 4:0.03 5:1.38 6:0.125 7:0.25 8:1.505 9:1.13 10:0.375 11:0.27 12:0.0913494809689 13:0.318339100346 14:0.0470588235294 
1 1:0.265 2:1.12 3:0.335 4:0.04 5:1.385 6:0.07 7:0.225 8:1.455 9:1.16 10:0.295 11:0.155 12:0.143944636678 13:0.321107266436 14:0.0415224913495 
1 1:0.295 2:1.165 3:0.345 4:0.07 5:1.46 6:0.05 7:0.225 8:1.51 9:1.235 10:0.275 11:0.14 12:0.157785467128 13:0.346020761246 14:0.0442906574394 
1 1:0.32 2:1.02 3:0.385 4:0.095 5:1.34 6:0.065 7:0.225 8:1.405 9:1.115 10:0.29 11:0.17 12:0.110726643599 13:0.359861591696 14:0.0442906574394 
1 1:0.31 2:1.145 3:0.355 4:0.05 5:1.455 6:0.045 7:0.26 8:1.5 9:1.195 10:0.305 11:0.16 12:0.141176470588 13:0.326643598616 14:0.0470588235294 
1 1:0.295 2:1.085 3:0.375 4:0.065 5:1.38 6:0.08 7:0.23 8:1.46 9:1.15 10:0.31 11:0.19 12:0.102422145329 13:0.351557093426 14:0.0415224913495 
-1 1:0.29 2:1.175 3:0.39 4:0.025 5:1.465 6:0.1 7:0.265 8:1.565 9:1.2 10:0.365 11:-0.02 12:0.141176470588 13:0.332179930796 14:0.0387543252595 
-1 1:0.28 2:1.1 3:0.405 4:0.03 5:1.38 6:0.125 7:0.25 8:1.505 9:1.13 10:0.375 11:-0.02 12:0.0858131487889 13:0.296193771626 14:0.0553633217993 
-1 1:0.29 2:1.175 3:0.31 4:0.08 5:1.465 6:0.02 7:0.21 8:1.485 9:1.255 10:0.23 11:-0.05 12:0.132871972318 13:0.373702422145 14:0.0387543252595 
-1 1:0.265 2:1.12 3:0.335 4:0.04 5:1.385 6:0.07 7:0.225 8:1.455 9:1.16 10:0.295 11:-0.021 12:0.143944636678 13:0.321107266436 14:0.0415224913495 
-1 1:0.295 2:1.165 3:0.345 4:0.07 5:1.46 6:0.05 7:0.225 8:1.51 9:1.235 10:0.275 11:-0.037 12:0.157785467128 13:0.346020761246 14:0.0442906574394 
-1 1:0.29 2:1.175 3:0.355 4:0.08 5:1.465 6:0.065 7:0.21 8:1.53 9:1.255 10:0.275 11:-0.05 12:0.132871972318 13:0.370934256055 14:0.0415224913495 
-1 1:0.28 2:1.1 3:0.405 4:0.03 5:1.38 6:0.125 7:0.25 8:1.505 9:1.13 10:0.375 11:-0.07 12:0.0913494809689 13:0.318339100346 14:0.0470588235294 
-1 1:0.32 2:1.02 3:0.4 4:0.095 5:1.34 6:0.08 7:0.225 8:1.42 9:1.115 10:0.305 11:-0.035 12:0.110726643599 13:0.359861591696 14:0.0442906574394 
-1 1:0.31 2:1.145 3:0.435 4:0.05 5:1.455 6:0.125 7:0.26 8:1.58 9:1.195 10:0.385 11:-0.07 12:0.141176470588 13:0.326643598616 14:0.0470588235294 
-1 1:0.295 2:1.085 3:0.375 4:0.065 5:1.38 6:0.08 7:0.23 8:1.46 9:1.15 10:0.31 11:-0.03 12:0.102422145329 13:0.351557093426 14:0.0415224913495 