1.79
1.26
0.88
1.12
1.87
2.10
1.68
1.14
0.92
1.43
2.11
2.05
1.54
1.04
1.07
1.77
2.24
1.96
1.39
1.00
1.30
2.07
2.24
1.80
1.23
1.04
1.60
2.25
2.15
1.60
1.09
1.15
1.88
2.29
1.96
1.38
1.01
1.35
2.12
2.21
1.74
1.19
1.06
1.63
2.25
2.09
1.55
1.08
1.21
1.98
2.36
2.00
1.45
1.16
1.57
2.35
2.41
1.92
1.38
1.29
1.97
2.56
2.34
1.76
1.30
1.51
2.31
2.59
2.17
1.58
1.29
1.78
2.52
2.48
1.94
1.40
1.36
2.08
2.59
2.31
1.72
1.28
1.54
2.35
2.55
2.09
1.52
1.26
1.80
2.51
2.42
1.87
1.33
1.36
2.10
2.56
2.23
1.64
1.24
1.55
2.35
2.50
2.01
1.45
1.25
1.83
2.50
2.36
1.79
1.28
1.36
2.14
2.54
2.17
1.59
1.22
1.60
2.38
2.47
1.97
1.40
1.25
1.88
2.50
2.32
1.76
1.28
1.42
2.21
2.56
2.17
1.58
1.26
1.71
2.49
2.52
2.00
1.44
1.34
2.01
2.58
2.33
1.74
1.27
1.45
2.23
2.53
2.08
1.48
1.18
1.69
2.39
2.37
1.83
1.29
1.25
1.95
2.47
2.19
1.60
1.11
1.21
1.74
1.71
1.22
0.81
0.77
1.60
2.84
3.40
3.48
3.62
4.12
4.50
4.47
3.79
2.90
2.17
2.13
2.57
2.40
1.77
1.20
0.96
1.43
1.99
1.83
1.30
0.87
0.95
1.64
2.01
1.68
1.15
0.84
1.19
1.92
2.01
1.55
1.03
0.91
1.51
2.10
1.94
1.40
0.96
1.10
1.84
2.18
1.81
1.26
0.95
1.38
2.10
2.14
1.64
1.10
1.02
1.66
2.23
1.98
1.42
0.98
1.17
1.91
2.20
1.76
1.20
0.93
1.39
2.08
2.05
1.55
1.04
1.01
1.69
2.20
1.96
1.40
1.00
1.28
2.10
2.35
1.97
1.40
1.19
1.77
2.51
2.43
1.91
1.40
1.45
2.22
2.67
2.34
1.75
1.35
1.69
2.50
2.63
2.14
1.55
1.36
1.96
2.62
2.47
1.89
1.38
1.47
2.25
2.63
2.25
1.66
1.30
1.69
2.50
2.54
2.02
1.47
1.34
1.96
2.58
2.38
1.79
1.30
1.46
2.25
2.57
2.16
1.56
1.24
1.68
2.45
2.45
1.93
1.39
1.30
1.98
2.54
2.29
1.71
1.25
1.47
2.27
2.53
2.10
1.51
1.24
1.73
2.46
2.42
1.88
1.34
1.32
2.04
2.55
2.26
1.68
1.25
1.53
2.33
2.54
2.08
1.51
1.29
1.85
2.57
2.49
1.91
1.37
1.41
2.16
2.59
2.23
1.63
1.23
1.56
2.34
2.46
1.97
1.39
1.21
1.81
2.46
2.30
1.74
1.24
1.34
2.11
2.49
2.10
1.47
1.04
1.21
1.69
1.54
1.09
0.74
0.91
2.03
3.19
3.67
3.81
4.02
4.40
4.65
4.36
3.49
2.52
1.86
1.93
2.37
2.16
1.56
1.05
0.95
1.52
1.99
1.74
1.23
0.83
1.03
1.75
1.99
1.58
1.07
0.84
1.31
1.99
1.96
1.46
0.98
0.96
1.65
2.15
1.87
1.31
0.93
1.20
1.96
2.16
1.72
1.17
0.96
1.49
2.17
2.07
1.55
1.05
1.08
1.77
2.20
1.89
1.32
0.94
1.25
1.99
2.12
1.65
1.10
0.94
1.50
2.12
1.98
1.44
0.98
1.09
1.83
2.22
1.89
1.33
1.01
1.41
2.22
2.33
1.87
1.35
1.25
1.92
2.57
2.39
1.83
1.36
1.54
2.36
2.68
2.27
1.67
1.36
1.83
2.60
2.59
2.04
1.48
1.41
2.11
2.66
2.39
1.80
1.34
1.57
2.38
2.62
2.17
1.57
1.30
1.81
2.54
2.48
1.93
1.39
1.38
2.11
2.60
2.29
1.69
1.27
1.55
2.35
2.53
2.06
1.48
1.25
1.81
2.52
2.39
1.83
1.31
1.37
2.12
2.55
2.20
1.61
1.23
1.58
2.37
2.48
1.98
1.41
1.25
1.87
2.51
2.33
1.76
1.28
1.39
2.17
2.53
2.15
1.56
1.22
1.64
2.41
2.46
1.95
1.39
1.29
1.97
2.57
2.34
1.77
1.31
1.51
2.32
2.61
2.17
1.57
1.26
1.73
2.46
2.43
1.89
1.33
1.28
1.97
2.49
2.21
1.64
1.19
1.44
2.23
2.45
2.01
1.43
1.18
1.71
2.39
2.23
1.60
1.04
0.90
1.37
1.73
1.55
1.29
1.42
2.40
3.48
4.10
4.19
3.96
3.90
4.33
4.30
3.44
2.39
1.57
1.38
1.90
2.12
1.72
1.15
0.84
1.17
1.85
1.91
1.43
0.96
0.85
1.43
1.99
1.82
1.29
0.87
1.06
1.76
2.08
1.71
1.17
0.89
1.32
2.05
2.07
1.57
1.08
0.99
1.64
2.18
1.96
1.40
0.97
1.18
1.94
2.19
1.78
1.22
0.96
1.43
2.13
2.07
1.55
1.05
1.05
1.69
2.16
1.88
1.31
0.92
1.19
1.95
2.14
1.70
1.15
0.96
1.50
2.19
2.14
1.63
1.13
1.20
1.97
2.46
2.17
1.62
1.25
1.63
2.45
2.59
2.11
1.54
1.38
2.02
2.67
2.50
1.93
1.42
1.52
2.31
2.69
2.30
1.70
1.34
1.74
2.53
2.59
2.08
1.50
1.35
2.01
2.62
2.40
1.82
1.34
1.50
2.29
2.61
2.19
1.60
1.28
1.74
2.49
2.49
1.96
1.39
1.32
2.04
2.57
2.30
1.72
1.26
1.49
2.28
2.53
2.09
1.50
1.23
1.75
2.47
2.42
1.86
1.32
1.32
2.05
2.54
2.23
1.64
1.23
1.51
2.32
2.52
2.03
1.45
1.23
1.81
2.49
2.38
1.81
1.30
1.35
2.12
2.54
2.19
1.60
1.22
1.59
2.39
2.50
2.01
1.43
1.30
1.95
2.62
2.40
1.83
1.33
1.47
2.24
2.57
2.16
1.56
1.22
1.64
2.39
2.41
1.90
1.33
1.23
1.89
2.48
2.24
1.67
1.20
1.39
2.18
2.46
2.04
1.44
1.07
1.38
1.85
1.62
1.13
0.75
0.91
1.94
3.04
3.42
3.47
3.75
4.25
4.57
4.31
3.53
2.65
2.09
2.28
2.63
2.26
1.61
1.08
1.03
1.63
2.02
1.70
1.15
0.82
1.11
1.82
1.96
1.51
1.02
0.86
1.40
2.02
1.91
1.38
0.93
1.02
1.74
2.13
1.80
1.25
0.91
1.28
2.04
2.13
1.66
1.12
0.99
1.60
2.20
2.03
1.48
1.01
1.14
1.89
2.22
1.84
1.27
0.95
1.36
2.09
2.11
1.61
1.10
1.00
1.64
2.18
1.96
1.40
0.97
1.17
1.94
2.22
1.82
1.26
1.00
1.51
2.28
2.27
1.77
1.29
1.27
2.01
2.55
2.30
1.72
1.30
1.59
2.44
2.62
2.16
1.57
1.34
1.90
2.61
2.50
1.94
1.41
1.45
2.21
2.65
2.31
1.71
1.31
1.65
2.45
2.57
2.08
1.49
1.31
1.92
2.58
2.40
1.83
1.32
1.43
2.21
2.60
2.19
1.60
1.25
1.67
2.43
2.49
1.97
1.41
1.29
1.95
2.54
2.32
1.74
1.27
1.44
2.23
2.54
2.12
1.53
1.23
1.70
2.45
2.44
1.92
1.36
1.30
2.02
2.55
2.28
1.69
1.24
1.48
2.29
2.51
2.06
1.51
1.23
1.76
2.49
2.42
1.88
1.34
1.36
2.11
2.61
2.30
1.72
1.30
1.61
2.41
2.59
2.07
1.48
1.25
1.82
2.49
2.36
1.79
1.28
1.33
2.10
2.51
2.17
1.56
1.18
1.55
2.33
2.43
1.94
1.36
1.16
1.68
2.12
1.77
1.19
0.80
0.97
1.87
2.61
2.74
2.73
3.09
3.84
4.32
4.16
3.48
2.76
2.47
2.87
3.01
2.41
1.68
1.13
1.19
1.84
2.05
1.63
1.09
0.85
1.29
1.96
1.94
